{
  "postgres": {
    "host": "gateway_db",
    "port": 5432,
    "user": "task",
    "pass": "task_password",
    "database": "banking"
  },
  "kafka": {
    "nodes": ["kafka:9092"],
    "writerTopic": "transactions",
    "readerTopic": "errors"
  },
  "port": 8000

}